[
  {
    "identifier": "Feed4Ceres::Feed4Ceres",
    "label": "Widget.Feed4Ceres",
    "previewImageURL": "/images/widgets/preview-f4c.svg",
    "type": "default",
    "categories": [ ],
    "position": 150,
    "widgetClass": "Feed4Ceres\\Widgets\\Feed4Ceres",
    "settings": {
      "mainTitle": {
        "type": "text",
        "required": true,
        "defaultValue": "Feed4Ceres Widget Title",
        "options": {
          "name": "Widget.WidgetComponentMainTitle",
          "tooltip": "Widget.WidgetComponentMainTitleTooltip"
        }
      },
      "subMainTitle": {
        "type": "text",
        "required": true,
        "defaultValue": "Content of Media",
        "options": {
          "name": "Widget.WidgetComponentSubMainTitle",
          "tooltip": "Widget.WidgetComponentSubMainTitleTooltip"
        }
      },
      "mediaToRecover": {
        "type": "text",
        "required": true,
        "defaultValue": "30",
        "options": {
          "name": "Widget.WidgetComponentMediaToRecover",
          "tooltip": "Widget.WidgetComponentMediaToRecoverTooltip"
        }
      },
      "mediaToShowOn": {
        "type": "text",
        "required": true,
        "defaultValue": "6",
        "options": {
          "name": "Widget.WidgetComponentMediaToShowOn",
          "tooltip": "Widget.WidgetComponentMediaToShowOnTooltip"
        }
      },
      "FilterTAGS": {
        "type": "text",
        "required": true,
        "defaultValue": "",
        "options": {
          "name": "Widget.WidgetComponentFilterTAGS",
          "tooltip": "Widget.WidgetComponentFilterTAGSTooltip"
        }
      }
    }
  }
]
